<?xml version="1.0" encoding="UTF-8"?>
<svg width="24px" height="24px" viewBox="0 0 24 24" version="1.1" xmlns="http://www.w3.org/2000/svg" xmlns:xlink="http://www.w3.org/1999/xlink">
    <!-- Generator: Sketch 48.1 (47250) - http://www.bohemiancoding.com/sketch -->
    <title>icon/20px/add-comment</title>
    <desc>Created with Sketch.</desc>
    <defs>
        <path d="M19,6 L20.009222,6 C20.5564136,6 21,6.44386482 21,7 C21,7.55228475 20.5490248,8 20.009222,8 L19,8 L19,9.00922203 C19,9.55641359 18.5561352,10 18,10 C17.4477153,10 17,9.54902482 17,9.00922203 L17,8 L15.990778,8 C15.4435864,8 15,7.55613518 15,7 C15,6.44771525 15.4509752,6 15.990778,6 L17,6 L17,4.99077797 C17,4.44358641 17.4438648,4 18,4 C18.5522847,4 19,4.45097518 19,4.99077797 L19,6 Z M14,4.18691261 L14,6.23168397 C13.3661733,6.08276367 12.6949728,6.00275379 12.0004994,6.00275379 C8.13900449,6.00275379 4.99766939,8.47515334 4.99766939,11.5133308 C4.99766939,14.5515083 8.13900449,17.0239079 12.0004994,17.0239079 C15.8609955,17.0239079 19.0023306,14.5515083 19.0023306,11.5133308 C19.0023306,11.3402673 18.9921377,11.1690395 18.9721995,11 L20.9792217,11 C20.992999,11.1696464 21,11.3408192 21,11.5133308 C21,13.2787583 20.2608623,14.9019902 19.0342933,16.1857554 L19.0712502,16.1657279 C18.2741801,17.0219051 19.8373564,19.2820128 19.8373564,19.2820128 L19.8373564,19.2830141 L19.8373564,19.2840155 C19.8633261,19.3450995 19.8773098,19.4121918 19.8773098,19.4832895 C19.8773098,19.7686819 19.6475778,20 19.3629099,20 C19.3049775,20 19.2510405,19.983978 19.199101,19.9669546 L19.1961045,19.9699587 C18.2442151,19.8227563 16.9597137,19.2730004 15.9568836,18.2505946 C14.7602797,18.7422706 13.4208424,19.0266617 12.0004994,19.0266617 C7.03728983,19.0266617 3,15.656027 3,11.5133308 C3,7.37063462 7.03728983,4 12.0004994,4 C12.6874797,4 13.3567327,4.06460258 14,4.18691261 Z" id="path-1"></path>
    </defs>
    <g id="Symbols" stroke="none" stroke-width="1" fill="none" fill-rule="evenodd">
        <g id="icon/20px/add-comment">
            <mask id="mask-2" fill="white">
                <use xlink:href="#path-1"></use>
            </mask>
            <use id="add-comment" fill="#3F4F71" xlink:href="#path-1"></use>
        </g>
    </g>
</svg>