<?xml version="1.0" encoding="UTF-8"?>
<svg width="24px" height="24px" viewBox="0 0 24 24" version="1.1" xmlns="http://www.w3.org/2000/svg" xmlns:xlink="http://www.w3.org/1999/xlink">
    <!-- Generator: Sketch 48.1 (47250) - http://www.bohemiancoding.com/sketch -->
    <title>icon/20px/add-item</title>
    <desc>Created with Sketch.</desc>
    <defs>
        <path d="M19,5 L20,5 C20.5522847,5 21,5.44771525 21,6 C21,6.55228475 20.5522847,7 20,7 L19,7 L19,8.00922203 C19,8.55641359 18.5561352,9 18,9 C17.4477153,9 17,8.54902482 17,8.00922203 L17,7 L16,7 C15.4477153,7 15,6.55228475 15,6 C15,5.44771525 15.4477153,5 16,5 L17,5 L17,3.99077797 C17,3.44358641 17.4438648,3 18,3 C18.5522847,3 19,3.45097518 19,3.99077797 L19,5 Z M13,3 L13,5 L5,5 L5,19 L19,19 L19,11 L21,11 L21,19.0049107 C21,20.1067681 20.1073772,21 19.0049107,21 L4.99508929,21 C3.8932319,21 3,20.1073772 3,19.0049107 L3,4.99508929 C3,3.8932319 3.8926228,3 4.99508929,3 L13,3 Z" id="path-1"></path>
    </defs>
    <g id="Symbols" stroke="none" stroke-width="1" fill="none" fill-rule="evenodd">
        <g id="icon/20px/add-item">
            <mask id="mask-2" fill="white">
                <use xlink:href="#path-1"></use>
            </mask>
            <use id="Add-item" fill="#3F4F71" fill-rule="nonzero" xlink:href="#path-1"></use>
        </g>
    </g>
</svg>