<?xml version="1.0" encoding="UTF-8"?>
<svg width="24px" height="24px" viewBox="0 0 24 24" version="1.1" xmlns="http://www.w3.org/2000/svg" xmlns:xlink="http://www.w3.org/1999/xlink">
    <!-- Generator: Sketch 48.1 (47250) - http://www.bohemiancoding.com/sketch -->
    <title>icon/20px/book</title>
    <desc>Created with Sketch.</desc>
    <defs>
        <path d="M7,6.07390187 L7,16.0689553 C7,16.6156676 7.44565467,17.0714286 7.99539757,17.0714286 L16.0046024,17.0714286 C16.5443356,17.0714286 17,16.622606 17,16.0689553 L17,6.07390187 C17,5.52718953 16.5543453,5.07142857 16.0046024,5.07142857 L7.99539757,5.07142857 C7.4556644,5.07142857 7,5.52025115 7,6.07390187 Z M10,20.0714286 L10,20.9285714 L8.5,20.0714286 L7,20.9285714 L7,20.0714286 L7,18.9010489 C5.83369979,18.4878427 5,17.370092 5,16.0689553 L5,6.07390187 C5,4.41921145 6.34756565,3.07142857 7.99539757,3.07142857 L16.0046024,3.07142857 C17.6618879,3.07142857 19,4.42549531 19,6.07390187 L19,16.0689553 C19,17.7236457 17.6524344,19.0714286 16.0046024,19.0714286 L10,19.0714286 L10,20.0714286 Z M10,22.0714286 L7,22.0714286 L10,22.0714286 Z M9,7.07142857 L9,11.0714286 L15,11.0714286 L15,7.07142857 L9,7.07142857 Z M9,13.0714286 L9,15.0714286 L15,15.0714286 L15,13.0714286 L9,13.0714286 Z" id="path-1"></path>
    </defs>
    <g id="Symbols" stroke="none" stroke-width="1" fill="none" fill-rule="evenodd">
        <g id="icon/20px/book">
            <mask id="mask-2" fill="white">
                <use xlink:href="#path-1"></use>
            </mask>
            <use id="Combined-Shape" fill="#3F4F71" fill-rule="nonzero" xlink:href="#path-1"></use>
        </g>
    </g>
</svg>