<?xml version="1.0" encoding="UTF-8"?>
<svg width="24px" height="24px" viewBox="0 0 24 24" version="1.1" xmlns="http://www.w3.org/2000/svg" xmlns:xlink="http://www.w3.org/1999/xlink">
    <!-- Generator: Sketch 48.1 (47250) - http://www.bohemiancoding.com/sketch -->
    <title>icon/20px/bullet-list</title>
    <desc>Created with Sketch.</desc>
    <defs>
        <path d="M10,16 C10,15.4477153 10.4530363,15 10.9970301,15 L17.0029699,15 C17.5536144,15 18,15.4438648 18,16 C18,16.5522847 17.5469637,17 17.0029699,17 L10.9970301,17 C10.4463856,17 10,16.5561352 10,16 Z M6,16 C6,15.4477153 6.44386482,15 7,15 C7.55228475,15 8,15.4438648 8,16 C8,16.5522847 7.55613518,17 7,17 C6.44771525,17 6,16.5561352 6,16 Z M10,12 C10,11.4477153 10.4530363,11 10.9970301,11 L17.0029699,11 C17.5536144,11 18,11.4438648 18,12 C18,12.5522847 17.5469637,13 17.0029699,13 L10.9970301,13 C10.4463856,13 10,12.5561352 10,12 Z M6,12 C6,11.4477153 6.44386482,11 7,11 C7.55228475,11 8,11.4438648 8,12 C8,12.5522847 7.55613518,13 7,13 C6.44771525,13 6,12.5561352 6,12 Z M10,8 C10,7.44771525 10.4530363,7 10.9970301,7 L17.0029699,7 C17.5536144,7 18,7.44386482 18,8 C18,8.55228475 17.5469637,9 17.0029699,9 L10.9970301,9 C10.4463856,9 10,8.55613518 10,8 Z M6,8 C6,7.44771525 6.44386482,7 7,7 C7.55228475,7 8,7.44386482 8,8 C8,8.55228475 7.55613518,9 7,9 C6.44771525,9 6,8.55613518 6,8 Z" id="path-1"></path>
    </defs>
    <g id="Symbols" stroke="none" stroke-width="1" fill="none" fill-rule="evenodd">
        <g id="icon/20px/bullet-list">
            <mask id="mask-2" fill="white">
                <use xlink:href="#path-1"></use>
            </mask>
            <use id="Combined-Shape" fill="#3F4F71" xlink:href="#path-1"></use>
        </g>
    </g>
</svg>