<?xml version="1.0" encoding="UTF-8"?>
<svg width="24px" height="24px" viewBox="0 0 24 24" version="1.1" xmlns="http://www.w3.org/2000/svg" xmlns:xlink="http://www.w3.org/1999/xlink">
    <!-- Generator: Sketch 48.1 (47250) - http://www.bohemiancoding.com/sketch -->
    <title>icon/20px/edit</title>
    <desc>Created with Sketch.</desc>
    <defs>
        <path d="M3.80093804,19.014231 L4.58093804,15.205231 L8.78993804,19.414231 L4.98093804,20.194231 C4.27793804,20.338231 3.65693804,19.717231 3.80093804,19.014231 Z M19.624338,6.49183097 C20.405338,7.27283097 20.405338,8.53883097 19.624338,9.31983097 L9.86733804,19.077831 L4.91733804,14.127831 L14.674338,4.36983097 C15.065338,3.97983097 15.577338,3.78483097 16.089338,3.78483097 C16.600338,3.78483097 17.112338,3.97983097 17.503338,4.36983097 L19.624338,6.49183097 Z M9.72133804,16.394831 L18.210338,7.90583097 L16.089338,5.78483097 L16.087338,5.78483097 L7.60033804,14.273831 L9.72133804,16.394831 Z" id="path-1"></path>
    </defs>
    <g id="Symbols" stroke="none" stroke-width="1" fill="none" fill-rule="evenodd">
        <g id="icon/20px/edit">
            <mask id="mask-2" fill="white">
                <use xlink:href="#path-1"></use>
            </mask>
            <use id="edit" fill="#405070" xlink:href="#path-1"></use>
        </g>
    </g>
</svg>