<?xml version="1.0" encoding="UTF-8"?>
<svg width="24px" height="24px" viewBox="0 0 24 24" version="1.1" xmlns="http://www.w3.org/2000/svg" xmlns:xlink="http://www.w3.org/1999/xlink">
    <!-- Generator: Sketch 48.1 (47250) - http://www.bohemiancoding.com/sketch -->
    <title>icon/20px/schedule</title>
    <desc>Created with Sketch.</desc>
    <defs>
        <path d="M17.5,15 L17.5,13.990778 C17.5,13.4509752 17.0522847,13 16.5,13 C15.9438648,13 15.5,13.4435864 15.5,13.990778 L15.5,15 L14.490778,15 C13.9509752,15 13.5,15.4477153 13.5,16 C13.5,16.5561352 13.9435864,17 14.490778,17 L15.5,17 L15.5,18.009222 C15.5,18.5490248 15.9477153,19 16.5,19 C17.0561352,19 17.5,18.5564136 17.5,18.009222 L17.5,17 L18.509222,17 C19.0490248,17 19.5,16.5522847 19.5,16 C19.5,15.4438648 19.0564136,15 18.509222,15 L17.5,15 Z M4.49822541,9 C4.5004366,11.9167951 4.5,16.9941413 4.5,16.9941413 C4.5,16.9966902 7.55493472,16.9981583 10.5827887,16.9989875 C10.7031701,17.7172891 10.9511752,18.3923302 11.3026932,19 L4.49406028,19 C3.3927712,19 2.5,18.1029399 2.5,16.9941413 L2.5,7.00585866 C2.5,5.89805351 3.39451376,5 4.49406028,5 L4.5,5 L4.5,4 C4.5,3.448 4.948,3 5.5,3 C6.052,3 6.5,3.448 6.5,4 L6.5,5 L14.5,5 L14.5,4 C14.5,3.448 14.948,3 15.5,3 C16.052,3 16.5,3.448 16.5,4 L16.5,5 L16.5059397,5 C17.6072288,5 18.5,5.89706013 18.5,7.00585866 L18.5,10.3414114 C17.8744623,10.1203156 17.2013141,10.0000077 16.5000676,10 C16.5000297,9.64781234 16.5000047,9.31153071 16.4999888,9 L4.49822541,9 Z M16.5,21 C13.7385763,21 11.5,18.7614237 11.5,16 C11.5,13.2385763 13.7385763,11 16.5,11 C19.2614237,11 21.5,13.2385763 21.5,16 C21.5,18.7614237 19.2614237,21 16.5,21 Z" id="path-1"></path>
    </defs>
    <g id="Symbols" stroke="none" stroke-width="1" fill="none" fill-rule="evenodd">
        <g id="icon/20px/schedule">
            <mask id="mask-2" fill="white">
                <use xlink:href="#path-1"></use>
            </mask>
            <use id="Combined-Shape" fill="#42526E" fill-rule="nonzero" xlink:href="#path-1"></use>
        </g>
    </g>
</svg>