<?xml version="1.0" encoding="UTF-8"?>
<svg width="24px" height="24px" viewBox="0 0 24 24" version="1.1" xmlns="http://www.w3.org/2000/svg" xmlns:xlink="http://www.w3.org/1999/xlink">
    <!-- Generator: Sketch 48.1 (47250) - http://www.bohemiancoding.com/sketch -->
    <title>icon/20px/sign-out</title>
    <desc>Created with Sketch.</desc>
    <defs>
        <path d="M6.49102254,11 L16.023,11 C16.562,11 17,11.448 17,12 C17,12.551 16.562,13 16.023,13 L6.48993457,13 L7.6965,14.217 C8.1015,14.625 8.1015,15.286 7.6965,15.695 C7.4945,15.898 7.2295,16 6.9645,16 C6.6995,16 6.4345,15.898 6.2315,15.695 L3.3015,12.738 C2.8995,12.33 2.8995,11.67 3.3015,11.262 L6.2315,8.306 C6.4345,8.103 6.6985,8 6.9645,8 C7.2295,8 7.4935,8.103 7.6965,8.306 C8.1015,8.714 8.1015,9.376 7.6965,9.783 L6.49102254,11 Z M15.503,3 L19.006,3 C20.108,3 21,3.892 21,4.995 L21,19.005 C21,20.107 20.106,21 19.006,21 L15.503,21 L12,21 L12,19 L19,19 L19,5 L12,5 L12,3 L15.503,3 Z" id="path-1"></path>
    </defs>
    <g id="Symbols" stroke="none" stroke-width="1" fill="none" fill-rule="evenodd">
        <g id="icon/20px/sign-out">
            <mask id="mask-2" fill="white">
                <use xlink:href="#path-1"></use>
            </mask>
            <use id="Combined-Shape" fill="#42526E" xlink:href="#path-1"></use>
        </g>
    </g>
</svg>