<?xml version="1.0" encoding="UTF-8"?>
<svg width="24px" height="24px" viewBox="0 0 24 24" version="1.1" xmlns="http://www.w3.org/2000/svg" xmlns:xlink="http://www.w3.org/1999/xlink">
    <!-- Generator: Sketch 48.1 (47250) - http://www.bohemiancoding.com/sketch -->
    <title>icon/20px/star</title>
    <desc>Created with Sketch.</desc>
    <defs>
        <path d="M11.9998615,16.2465201 L15.9807382,18.4400046 L15.2190276,13.7853868 L18.4959194,10.4376482 L13.9722488,9.74871966 L11.9998615,5.56009703 L10.0274742,9.74871966 L5.50380359,10.4376482 L8.78069531,13.7853868 L8.01898474,18.4400046 L11.9998615,16.2465201 Z M11.9998615,18.5300323 L8.98417405,20.1916923 C8.01674369,20.7247516 6.80035644,20.3726243 6.2672971,19.4051939 C6.05108132,19.0127916 5.97288308,18.559155 6.04523867,18.1170086 L6.64350505,14.4611563 L4.07454749,11.8366575 C3.30189599,11.0473011 3.31543795,9.78104359 4.10479429,9.00839209 C4.40430553,8.71521929 4.78834982,8.52354705 5.20268726,8.46044588 L8.67228433,7.93204657 L10.1904356,4.70805356 C10.6610062,3.70873525 11.8525866,3.28010056 12.8519049,3.75067117 C13.2726324,3.94878819 13.6111703,4.28732615 13.8092873,4.70805356 L15.3274386,7.93204657 L18.7970357,8.46044588 C19.8890144,8.62674784 20.6394236,9.64678583 20.4731217,10.7387645 C20.4100205,11.153102 20.2183483,11.5371462 19.9251755,11.8366575 L17.3562179,14.4611563 L17.9544843,18.1170086 C18.1328701,19.2070784 17.3938041,20.2353649 16.3037343,20.4137507 C15.8615878,20.4861063 15.4079512,20.407908 15.0155489,20.1916923 L11.9998615,18.5300323 Z" id="path-1"></path>
    </defs>
    <g id="Symbols" stroke="none" stroke-width="1" fill="none" fill-rule="evenodd">
        <g id="icon/20px/star">
            <mask id="mask-2" fill="white">
                <use xlink:href="#path-1"></use>
            </mask>
            <use id="star" fill="#42526E" fill-rule="nonzero" xlink:href="#path-1"></use>
        </g>
    </g>
</svg>