<?xml version="1.0" encoding="UTF-8"?>
<svg width="16px" height="16px" viewBox="0 0 16 16" version="1.1" xmlns="http://www.w3.org/2000/svg" xmlns:xlink="http://www.w3.org/1999/xlink">
    <!-- Generator: Sketch 48.2 (47327) - http://www.bohemiancoding.com/sketch -->
    <title>confluence/16px/cut-table-row</title>
    <desc>Created with Sketch.</desc>
    <defs></defs>
    <g id="Editor-icons---v2" stroke="none" stroke-width="1" fill="none" fill-rule="evenodd">
        <g id="confluence/16px/cut-table-row" fill="#42526E">
            <path d="M12,9 L13,9 L13,7 L12,7 L12,5 L14,5 C14.5522847,5 15,5.44771525 15,6 L15,10 C15,10.5522847 14.5522847,11 14,11 L12,11 L12,9 Z" id="Combined-Shape"></path>
            <path d="M5.54284541,7.98910111 L4.39383694,6.83547187 C4.11628059,6.94176356 3.81494122,7 3.5,7 C2.11928813,7 1,5.88071187 1,4.5 C1,3.11928813 2.11928813,2 3.5,2 C4.88071187,2 6,3.11928813 6,4.5 C6,4.82968654 5.93618273,5.14446777 5.82022739,5.43266447 L6.95841812,6.57464986 L10.0710678,3.46446609 C10.8521164,2.68341751 12.1184464,2.68341751 12.8994949,3.46446609 L8.37002373,7.99096169 L12.8994949,12.5355339 C12.1184464,13.3165825 10.8521164,13.3165825 10.0710678,12.5355339 L6.95406213,9.40599309 L5.81204716,10.5472578 C5.93317781,10.8408889 6,11.1626409 6,11.5 C6,12.8807119 4.88071187,14 3.5,14 C2.11928813,14 1,12.8807119 1,11.5 C1,10.1192881 2.11928813,9 3.5,9 C3.80745129,9 4.10194,9.05549942 4.3739942,9.15702632 L5.54284541,7.98910111 Z M3.5,5 C3.77614237,5 4,4.77614237 4,4.5 C4,4.22385763 3.77614237,4 3.5,4 C3.22385763,4 3,4.22385763 3,4.5 C3,4.77614237 3.22385763,5 3.5,5 Z M3.5,12 C3.77614237,12 4,11.7761424 4,11.5 C4,11.2238576 3.77614237,11 3.5,11 C3.22385763,11 3,11.2238576 3,11.5 C3,11.7761424 3.22385763,12 3.5,12 Z" id="Combined-Shape"></path>
        </g>
    </g>
</svg>