<?xml version="1.0" encoding="UTF-8"?>
<svg width="16px" height="16px" viewBox="0 0 16 16" version="1.1" xmlns="http://www.w3.org/2000/svg" xmlns:xlink="http://www.w3.org/1999/xlink">
    <!-- Generator: Sketch 48.2 (47327) - http://www.bohemiancoding.com/sketch -->
    <title>icon/16px/info-filled-16px</title>
    <desc>Created with Sketch.</desc>
    <defs></defs>
    <g id="Symbols" stroke="none" stroke-width="1" fill="none" fill-rule="evenodd">
        <g id="icon/16px/info-filled" fill="#42526E">
            <path d="M8,6 C7.448,6 7,5.552 7,5 C7,4.448 7.448,4 8,4 C8.552,4 9,4.448 9,5 C9,5.552 8.552,6 8,6 Z M9,11 C9,11.552 8.552,12 8,12 C7.448,12 7,11.552 7,11 L7,8 C7,7.448 7.448,7 8,7 C8.552,7 9,7.448 9,8 L9,11 Z M8,1 C4.134,1 1,4.134 1,8 C1,11.866 4.134,15 8,15 C11.866,15 15,11.866 15,8 C15,4.134 11.866,1 8,1 Z" id="info-filled-small"></path>
        </g>
    </g>
</svg>