<?xml version="1.0" encoding="UTF-8"?>
<svg width="16px" height="16px" viewBox="0 0 16 16" version="1.1" xmlns="http://www.w3.org/2000/svg" xmlns:xlink="http://www.w3.org/1999/xlink">
    <!-- Generator: Sketch 48.2 (47327) - http://www.bohemiancoding.com/sketch -->
    <title>icon/16px/recent-16px</title>
    <desc>Created with Sketch.</desc>
    <defs>
        <path d="M13.6,8 C13.6,4.9123 11.0877,2.4 8,2.4 C4.9123,2.4 2.4,4.9123 2.4,8 C2.4,11.0877 4.9123,13.6 8,13.6 C11.0877,13.6 13.6,11.0877 13.6,8 Z M15,8 C15,11.8661 11.8661,15 8,15 C4.1339,15 1,11.8661 1,8 C1,4.1339 4.1339,1 8,1 C11.8661,1 15,4.1339 15,8 Z M10.478,9.679 C10.867,10.068 10.867,10.704 10.478,11.094 C10.089,11.482 9.453,11.482 9.063,11.094 L7.301,9.331 C7.116,9.149 7,8.898 7,8.619 L7,6.619 L7,6.617 L7,6.615 L7,5 C7,4.448 7.448,4 8,4 C8.552,4 9,4.448 9,5 L9,6.615 L9,6.617 L9,6.619 L9,8.201 L10.478,9.679 Z" id="path-1"></path>
    </defs>
    <g id="Symbols" stroke="none" stroke-width="1" fill="none" fill-rule="evenodd">
        <g id="icon/16px/recent">
            <mask id="mask-2" fill="white">
                <use xlink:href="#path-1"></use>
            </mask>
            <use id="time" fill="#42526E" xlink:href="#path-1"></use>
        </g>
    </g>
</svg>