<?xml version="1.0" encoding="UTF-8"?>
<svg width="16px" height="16px" viewBox="0 0 16 16" version="1.1" xmlns="http://www.w3.org/2000/svg" xmlns:xlink="http://www.w3.org/1999/xlink">
    <!-- Generator: Sketch 48.2 (47327) - http://www.bohemiancoding.com/sketch -->
    <title>icon/16px/room-menu-16px</title>
    <desc>Created with Sketch.</desc>
    <defs>
        <path d="M6,13 C6,13.553 5.553,14 5,14 L2,14 C1.447,14 1,13.553 1,13 C1,12.447 1.447,12 2,12 L5,12 C5.553,12 6,12.447 6,13 Z M6,9.75 C6,10.303 5.553,10.75 5,10.75 L2,10.75 C1.447,10.75 1,10.303 1,9.75 C1,9.197 1.447,8.75 2,8.75 L5,8.75 C5.553,8.75 6,9.197 6,9.75 Z M6,6.25 C6,6.803 5.553,7.25 5,7.25 L2,7.25 C1.447,7.25 1,6.803 1,6.25 C1,5.697 1.447,5.25 2,5.25 L5,5.25 C5.553,5.25 6,5.697 6,6.25 Z M6,3 C6,3.553 5.553,4 5,4 L2,4 C1.447,4 1,3.553 1,3 C1,2.447 1.447,2 2,2 L5,2 C5.553,2 6,2.447 6,3 Z M13,2 C14.1,2 15,2.9 15,4 L15,12 C15,13.1 14.1,14 13,14 L9,14 C7.9,14 7,13.1 7,12 L7,4 C7,2.9 7.9,2 9,2 L13,2 Z M9,12 L13,12 L13,4 L9,4 L9,12 Z" id="path-1"></path>
    </defs>
    <g id="Symbols" stroke="none" stroke-width="1" fill="none" fill-rule="evenodd">
        <g id="icon/16px/room-menu">
            <mask id="mask-2" fill="white">
                <use xlink:href="#path-1"></use>
            </mask>
            <use id="room-menu" fill="#42526E" xlink:href="#path-1"></use>
        </g>
    </g>
</svg>
