<?xml version="1.0" encoding="UTF-8"?>
<svg width="16px" height="16px" viewBox="0 0 16 16" version="1.1" xmlns="http://www.w3.org/2000/svg" xmlns:xlink="http://www.w3.org/1999/xlink">
    <!-- Generator: Sketch 48.2 (47327) - http://www.bohemiancoding.com/sketch -->
    <title>confluence/16px/symbol</title>
    <desc>Created with Sketch.</desc>
    <defs>
        <path d="M2.09426616,7.99371243 C1.94200478,4.94154539 4.51200399,2.09011012 8.0034839,2.09011012 C11.0089171,2.11746426 14.0011055,4.31470062 13.9127016,7.99371243 C13.9127016,9.22118054 13.3745691,10.7517425 12.3462087,12.2173252 C13.011138,12.2230015 13.3165012,12.2173252 13.9127016,12.2173252 C14.3621094,12.2173252 14.7468284,12.5495796 14.7468284,13.0643716 C14.7468284,13.8168453 14.0517137,13.9063477 13.9127016,13.9075151 C13.5356553,13.9106815 11.7501497,13.9106815 8.55618496,13.9075151 C9.83508901,12.5948258 10.6866843,11.6401269 11.110971,11.0434183 C12.2866431,9.15272162 12.254194,8.2536315 12.1822085,7.15911086 C12.110223,6.06459023 10.7641111,3.77185458 8.01372428,3.77845804 C5.26333746,3.78506151 3.95874681,5.9823974 3.83533827,7.15911086 C3.73412942,8.13814483 3.76348592,9.21935188 4.92775431,11.0434183 C5.45167905,11.8770974 6.49839499,12.889949 7.43159702,13.9075151 C6.4105332,13.9075151 4.5649819,13.9075151 2.09426616,13.9075151 C1.82597918,13.9149733 1.25355929,13.7119289 1.25317181,13.0643716 C1.25278434,12.4168144 1.84263441,12.2067627 2.09426616,12.2206356 C2.44890784,12.2179306 3.19097355,12.2173252 3.69320656,12.2173252 C2.78159823,10.8707564 2.28379256,9.95023749 2.09426616,7.99371243 Z" id="path-1"></path>
    </defs>
    <g id="Editor-icons" stroke="none" stroke-width="1" fill="none" fill-rule="evenodd">
        <g id="confluence/16px/symbol">
            <mask id="mask-2" fill="white">
                <use xlink:href="#path-1"></use>
            </mask>
            <use id="Rectangle-5" fill="#41516F" xlink:href="#path-1"></use>
        </g>
    </g>
</svg>