<?xml version="1.0" encoding="UTF-8"?>
<svg width="16px" height="16px" viewBox="0 0 16 16" version="1.1" xmlns="http://www.w3.org/2000/svg" xmlns:xlink="http://www.w3.org/1999/xlink">
    <!-- Generator: Sketch 48.2 (47327) - http://www.bohemiancoding.com/sketch -->
    <title>icon/16px/unlock-circle-16px</title>
    <desc>Created with Sketch.</desc>
    <defs>
        <path d="M9.4,6.95 L9.4,6.586 C9.4,5.8202 8.7798,5.2 8.014,5.2 L7.986,5.2 C7.2202,5.2 6.6,5.8202 6.6,6.586 L6.6,8 L7.3,8 L7.3,6.593 C7.3,6.2101 7.6101,5.9 7.993,5.9 L8.007,5.9 C8.3899,5.9 8.7,6.2101 8.7,6.593 L8.7,6.95 L8.7,7.3 L9.4,7.3 L9.4,6.95 Z M8,15 C4.13400675,15 1,11.8659932 1,8 C1,4.13400675 4.13400675,1 8,1 C11.8659932,1 15,4.13400675 15,8 C15,11.8659932 11.8659932,15 8,15 Z M5.9,10.1007304 C5.9,10.4869263 6.21568263,10.8 6.59354458,10.8 L9.40645542,10.8 C9.78948952,10.8 10.1,10.4901378 10.1,10.1007304 L10.1,8.7 C10.1,8.3136 9.7864,8 9.4,8 L6.6,8 C6.2136,8 5.9,8.3136 5.9,8.7 L5.9,10.1007304 Z" id="path-1"></path>
    </defs>
    <g id="Symbols" stroke="none" stroke-width="1" fill="none" fill-rule="evenodd">
        <g id="icon/16px/unlock-circle">
            <mask id="mask-2" fill="white">
                <use xlink:href="#path-1"></use>
            </mask>
            <use id="Combined-Shape" fill="#42526E" xlink:href="#path-1"></use>
        </g>
    </g>
</svg>